{
  "project_info": {
    "project_number": "860225883158",
    "firebase_url": "https://clinnic-1f9d5.firebaseio.com",
    "project_id": "clinnic-1f9d5",
    "storage_bucket": "clinnic-1f9d5.appspot.com"
  },
  "client": [
    {
      "client_info": {
        "mobilesdk_app_id": "1:860225883158:android:d918928dc2a29119",
        "android_client_info": {
          "package_name": "azstack.com.optimime.hospital"
        }
      },
      "oauth_client": [
        {
          "client_id": "860225883158-6arvlvj435cr9uhmgr0cdas3bj2juojh.apps.googleusercontent.com",
          "client_type": 3
        }
      ],
      "api_key": [
        {
          "current_key": "AIzaSyBHV2TaQc_RSjUvbgUA5Il3jT6_oLjqrHA"
        }
      ],
      "services": {
        "analytics_service": {
          "status": 1
        },
        "appinvite_service": {
          "status": 1,
          "other_platform_oauth_client": []
        },
        "ads_service": {
          "status": 2
        }
      }
    }
  ],
  "configuration_version": "1"
}